WTA Majors - EDA
…
mean(tournament_wins$minutes, na.rm=TRUE)

## [1] 87

majors_data %>% 
  group_by(name) %>% 
  summarise(total_mins = sum(minutes), n = n(), am = ) %>% 
  arrange(desc(total_mins))

## # A tibble: 184 x 3
##                   name total_mins     n
##                 <fctr>      <int> <int>
##  1    Jelena Ostapenko       1831    18
##  2     Coco Vandeweghe       1744    18
##  3   Karolina Pliskova       1687    18
##  4 Svetlana Kuznetsova       1643    15
##  5     Elina Svitolina       1622    16
##  6     Caroline Garcia       1365    15
##  7  Caroline Wozniacki       1337    14
##  8       Shelby Rogers       1330    11
##  9 Agnieszka Radwanska       1293    12
## 10        Simona Halep       1291    14
## # ... with 174 more rows

Most Matches

majors_data %>% 
  group_by(name, surface) %>% 
  summarise(n = n(), wins = sum(Win), losses = n - wins) %>% 
  arrange(desc(wins))

## # A tibble: 422 x 5
## # Groups:   name [184]
##                    name surface     n  wins losses
##                  <fctr>  <fctr> <int> <int>  <int>
##  1       Venus Williams    Hard    13    11      2
##  2      Coco Vandeweghe    Hard    12    10      2
##  3    Karolina Pliskova    Hard    10     8      2
##  4     Garbine Muguruza   Grass     7     7      0
##  5     Garbine Muguruza    Hard     9     7      2
##  6     Jelena Ostapenko    Clay     7     7      0
##  7      Serena Williams    Hard     7     7      0
##  8      Sloane Stephens    Hard     7     7      0
##  9 Anastasija Sevastova    Hard     8     6      2
## 10       Jennifer Brady    Hard     8     6      2
## # ... with 412 more rows

majors_data %>% 
  group_by(name, surface) %>% 
  summarise(n = n(), wins = sum(Win), losses = n - wins) %>% 
  arrange(losses)

## # A tibble: 422 x 5
## # Groups:   name [184]
##                     name surface     n  wins losses
##                   <fctr>  <fctr> <int> <int>  <int>
##  1      Garbine Muguruza   Grass     7     7      0
##  2      Jelena Ostapenko    Clay     7     7      0
##  3       Serena Williams    Hard     7     7      0
##  4       Sloane Stephens    Hard     7     7      0
##  5   Agnieszka Radwanska    Clay     3     2      1
##  6   Agnieszka Radwanska   Grass     4     3      1
##  7      Ajla Tomljanovic    Clay     1     0      1
##  8      Ajla Tomljanovic    Hard     2     1      1
##  9     Aleksandra Krunic    Hard     3     2      1
## 10 Aliaksandra Sasnovich    Clay     2     1      1
## # ... with 412 more rows
…
